Untitled
…
prod_info <- sqlQuery(drv, 'select * from Sales.OrderLines')

top_prods <- tbl_df(tef %>% filter(stockitemid_median_opt_bin == '03 > 1450',
                            stockitemid_mean_opt_bin == '03 > 1533.5773') %>%
  inner_join(prod_info, by=c('orderlineid' = 'OrderLineID')))

dim(top_prods)

## [1] 14840    30

top_prods

## # A tibble: 14,840 x 30
##        X customerid customerid_mean customerid_median customerid_len
##    <int>      <int>           <dbl>             <dbl>          <dbl>
##  1     4         11        913.5400            216.00             95
##  2    15        127        858.3828            246.75             58
##  3    31        192       1221.9708            280.00             53
##  4    42        200        513.6219            240.00             73
##  5    49        415        962.5427            300.00            103
##  6    52        419        490.4965            224.00             99
##  7    55        442        783.9448            240.00             87
##  8    65        453        923.1098            240.00             56
##  9    75        534        717.3939            256.00             57
## 10    76        534        717.3939            256.00             57
## # ... with 14,830 more rows, and 25 more variables:
## #   customerid_count_gt_n <dbl>, stockitemid <int>, total_rev <dbl>,
## #   orderdate <chr>, orderlineid <int>, stockitemid_mean <dbl>,
## #   stockitemid_median <dbl>, stockitemid_len <dbl>,
## #   stockitemid_count_gt_n <dbl>, y <lgl>, item_prop_10g <dbl>,
## #   customer_prop_10g <dbl>, stockitemid_mean_opt_bin <fctr>,
## #   stockitemid_median_opt_bin <fctr>, OrderID <int>, StockItemID <int>,
## #   Description <fctr>, PackageTypeID <int>, Quantity <int>,
## #   UnitPrice <dbl>, TaxRate <dbl>, PickedQuantity <int>,
## #   PickingCompletedWhen <fctr>, LastEditedBy <int>, LastEditedWhen <fctr>

mean that much higher than the median suggests outliers

top_prods %>% dplyr::select(Description, stockitemid_mean) %>% arrange(-stockitemid_mean)

## # A tibble: 14,840 x 2
##                   Description stockitemid_mean
##                        <fctr>            <dbl>
##  1 Air cushion machine (Blue)         11105.82
##  2 Air cushion machine (Blue)         11105.82
##  3 Air cushion machine (Blue)         11102.42
##  4 Air cushion machine (Blue)         11102.42
##  5 Air cushion machine (Blue)         11102.42
##  6 Air cushion machine (Blue)         11100.11
##  7 Air cushion machine (Blue)         11100.11
##  8 Air cushion machine (Blue)         11099.08
##  9 Air cushion machine (Blue)         11099.08
## 10 Air cushion machine (Blue)         11099.08
## # ... with 14,830 more rows

# one badass blue air cushion machine
top_prods %>% arrange(-stockitemid_mean) %>% 
  dplyr::select(Description) %>% distinct()

## # A tibble: 24 x 1
##                                 Description
##                                      <fctr>
##  1               Air cushion machine (Blue)
##  2       32 mm Double sided bubble wrap 50m
##  3       20 mm Double sided bubble wrap 50m
##  4 32 mm Anti static bubble wrap (Blue) 50m
##  5       10 mm Double sided bubble wrap 50m
##  6 10 mm Anti static bubble wrap (Blue) 50m
##  7 20 mm Anti static bubble wrap (Blue) 50m
##  8 32 mm Anti static bubble wrap (Blue) 20m
##  9         Void fill 400 L bag (White) 400L
## 10 20 mm Anti static bubble wrap (Blue) 20m
## # ... with 14 more rows
…
