Untitled
…
more variability, than before as we would expect

do we have enough data to narrow down into subcategries?

if not well end up overfitting and our insights wont be valid

train %>% group_by(order_month, SalespersonPersonID) %>% count() %>% arrange(n)

## # A tibble: 120 x 3
## # Groups:   order_month, SalespersonPersonID [120]
##    order_month SalespersonPersonID     n
##          <int>               <int> <int>
##  1          11                   7   374
##  2           8                  14   376
##  3           8                   8   378
##  4           8                   6   381
##  5           9                   3   383
##  6           9                  14   387
##  7          11                  13   387
##  8           8                   3   397
##  9           8                   7   398
## 10          11                   8   402
## # ... with 110 more rows

train %>% group_by(order_month, CustomerCategoryID) %>% count()  %>% arrange(n)

## # A tibble: 60 x 3
## # Groups:   order_month, CustomerCategoryID [60]
##    order_month CustomerCategoryID     n
##          <int>              <int> <int>
##  1           8                  5   250
##  2           8                  7   272
##  3          11                  5   273
##  4           6                  7   275
##  5           8                  6   275
##  6           9                  7   283
##  7           9                  5   289
##  8           6                  5   297
##  9          11                  7   297
## 10           9                  6   301
## # ... with 50 more rows

train %>% group_by(order_month, StateProvinceID) %>% count()  %>% arrange(n)

## # A tibble: 588 x 3
## # Groups:   order_month, StateProvinceID [588]
##    order_month StateProvinceID     n
##          <int>           <int> <int>
##  1          12              12     4
##  2          11              12     6
##  3           5              12     7
##  4           6              12     9
##  5           2              12    10
##  6           3              12    10
##  7           9              12    10
##  8           4              12    11
##  9           7              12    11
## 10           8              12    11
## # ... with 578 more rows

state/province is more concentrated than the others

if we were to include the interaction w this and each month wed want to filter out the less common states

lets look at the other on a weekly level

train %>% group_by(order_wk, SalespersonPersonID) %>% count() %>% arrange(n)

## # A tibble: 530 x 3
## # Groups:   order_wk, SalespersonPersonID [530]
##    order_wk SalespersonPersonID     n
##       <int>               <int> <int>
##  1       53                   7    51
##  2       53                  13    52
##  3       53                   6    58
##  4        1                   3    60
##  5       53                  14    61
##  6       53                  15    61
##  7        1                  16    62
##  8       53                   8    62
##  9       53                   3    63
## 10        1                   7    64
## # ... with 520 more rows

train %>% group_by(order_wk, CustomerCategoryID) %>% count()  %>% arrange(n)

## # A tibble: 265 x 3
## # Groups:   order_wk, CustomerCategoryID [265]
##    order_wk CustomerCategoryID     n
##       <int>              <int> <int>
##  1       53                  5    38
##  2       53                  6    39
##  3       53                  7    45
##  4        1                  7    47
##  5       34                  5    47
##  6       38                  7    49
##  7       31                  7    53
##  8       25                  5    54
##  9       38                  5    54
## 10       32                  6    55
## # ... with 255 more rows
…
