Untitled
…
we can derive features for this similarly to above take a look at the previous times this was sold, proportions in the club, avg order, and vary the time interval were applying on (lifetime, 30 days, 3 months, )

could be the case were no client is always in the club, but is when we sell them these specific products

sum(train$order_rev > 10000) / nrow(train)

## [1] 0.0306

comma_stats = train %>% group_by(CustomerID) %>% summarise(num_comma = sum(order_rev > 10000), 
                                             prop_comma = num_comma / n(), n = n()) %>%
  arrange(-prop_comma)

comma_stats

## # A tibble: 663 x 4
##    CustomerID num_comma prop_comma     n
##         <int>     <int>      <dbl> <int>
##  1        996         9 0.10000000    90
##  2       1056         1 0.10000000    10
##  3        109         7 0.09333333    75
##  4        945         7 0.09333333    75
##  5       1058         1 0.09090909    11
##  6       1003         6 0.08450704    71
##  7        813         8 0.08333333    96
##  8        870         8 0.08333333    96
##  9        413         8 0.08080808    99
## 10        526         6 0.07594937    79
## # ... with 653 more rows
…
